EESchema Schematic File Version 2
LIBS:power
LIBS:device
LIBS:transistors
LIBS:conn
LIBS:linear
LIBS:regul
LIBS:74xx
LIBS:cmos4000
LIBS:adc-dac
LIBS:memory
LIBS:xilinx
LIBS:microcontrollers
LIBS:dsp
LIBS:microchip
LIBS:analog_switches
LIBS:motorola
LIBS:texas
LIBS:intel
LIBS:audio
LIBS:interface
LIBS:digital-audio
LIBS:philips
LIBS:display
LIBS:cypress
LIBS:siliconi
LIBS:opto
LIBS:atmel
LIBS:contrib
LIBS:valves
LIBS:armicrocontrollers
EELAYER 25 0
EELAYER END
$Descr A4 11693 8268
encoding utf-8
Sheet 1 1
Title ""
Date ""
Rev ""
Comp ""
Comment1 ""
Comment2 ""
Comment3 ""
Comment4 ""
$EndDescr
$Comp
L 80c31 U?
U 1 1 567EE4E9
P 2550 3900
F 0 "U?" H 2550 3900 60  0000 C CNN
F 1 "80c31" H 2550 4050 60  0000 C CNN
F 2 "" H 2550 3900 60  0000 C CNN
F 3 "" H 2550 3900 60  0000 C CNN
	1    2550 3900
	1    0    0    -1  
$EndComp
$Comp
L 6264 U?
U 1 1 567EE5DF
P 7600 3550
F 0 "U?" H 7800 2850 60  0000 C CNN
F 1 "6264" H 7450 2850 60  0000 C CNN
F 2 "" H 7350 3800 60  0000 C CNN
F 3 "" H 7350 3800 60  0000 C CNN
	1    7600 3550
	1    0    0    -1  
$EndComp
$Comp
L 2864 U?
U 1 1 567EE67A
P 9500 3550
F 0 "U?" H 9500 3550 60  0000 C CNN
F 1 "2864" H 9500 3650 60  0000 C CNN
F 2 "" H 9250 3800 60  0000 C CNN
F 3 "" H 9250 3800 60  0000 C CNN
	1    9500 3550
	1    0    0    -1  
$EndComp
$Comp
L ar74LS373 U?
U 1 1 567EEDD3
P 5250 3300
F 0 "U?" H 5250 3300 60  0000 C CNN
F 1 "ar74LS373" H 5250 3450 60  0000 C CNN
F 2 "" H 5250 3250 60  0000 C CNN
F 3 "" H 5250 3250 60  0000 C CNN
	1    5250 3300
	1    0    0    -1  
$EndComp
$Comp
L GND #PWR?
U 1 1 567F0F86
P 5500 6150
F 0 "#PWR?" H 5500 5900 50  0001 C CNN
F 1 "GND" H 5500 6000 50  0000 C CNN
F 2 "" H 5500 6150 50  0000 C CNN
F 3 "" H 5500 6150 50  0000 C CNN
	1    5500 6150
	1    0    0    -1  
$EndComp
$Comp
L R R?
U 1 1 567F1189
P 7250 2300
F 0 "R?" V 7330 2300 50  0000 C CNN
F 1 "R" V 7250 2300 50  0000 C CNN
F 2 "" V 7180 2300 50  0000 C CNN
F 3 "" H 7250 2300 50  0000 C CNN
	1    7250 2300
	1    0    0    -1  
$EndComp
$Comp
L R R?
U 1 1 567F1D3B
P 1700 2100
F 0 "R?" V 1780 2100 50  0000 C CNN
F 1 "R" V 1700 2100 50  0000 C CNN
F 2 "" V 1630 2100 50  0000 C CNN
F 3 "" H 1700 2100 50  0000 C CNN
	1    1700 2100
	1    0    0    -1  
$EndComp
$Comp
L CP C?
U 1 1 567F1DC2
P 1700 1600
F 0 "C?" H 1725 1700 50  0000 L CNN
F 1 "CP" H 1725 1500 50  0000 L CNN
F 2 "" H 1738 1450 50  0000 C CNN
F 3 "" H 1700 1600 50  0000 C CNN
	1    1700 1600
	1    0    0    -1  
$EndComp
$Comp
L GND #PWR?
U 1 1 567F1FE9
P 1700 2350
F 0 "#PWR?" H 1700 2100 50  0001 C CNN
F 1 "GND" H 1700 2200 50  0000 C CNN
F 2 "" H 1700 2350 50  0000 C CNN
F 3 "" H 1700 2350 50  0000 C CNN
	1    1700 2350
	1    0    0    -1  
$EndComp
$Comp
L C C?
U 1 1 567F2130
P 1700 5850
F 0 "C?" H 1725 5950 50  0000 L CNN
F 1 "C" H 1725 5750 50  0000 L CNN
F 2 "" H 1738 5700 50  0000 C CNN
F 3 "" H 1700 5850 50  0000 C CNN
	1    1700 5850
	1    0    0    -1  
$EndComp
$Comp
L C C?
U 1 1 567F21B5
P 1400 5850
F 0 "C?" H 1425 5950 50  0000 L CNN
F 1 "C" H 1425 5750 50  0000 L CNN
F 2 "" H 1438 5700 50  0000 C CNN
F 3 "" H 1400 5850 50  0000 C CNN
	1    1400 5850
	1    0    0    -1  
$EndComp
$Comp
L Crystal Y?
U 1 1 567F21E8
P 1550 5600
F 0 "Y?" H 1550 5750 50  0000 C CNN
F 1 "Crystal" H 1550 5450 50  0000 C CNN
F 2 "" H 1550 5600 50  0000 C CNN
F 3 "" H 1550 5600 50  0000 C CNN
	1    1550 5600
	1    0    0    -1  
$EndComp
Wire Wire Line
	5850 2950 6750 2950
Wire Wire Line
	6750 2950 8650 2950
Connection ~ 6750 2950
Wire Wire Line
	5850 3050 6750 3050
Wire Wire Line
	6750 3050 8650 3050
Connection ~ 6750 3050
Wire Wire Line
	5850 3150 6750 3150
Wire Wire Line
	6750 3150 8650 3150
Connection ~ 6750 3150
Wire Wire Line
	5850 3250 6750 3250
Wire Wire Line
	6750 3250 8650 3250
Connection ~ 6750 3250
Wire Wire Line
	5850 3350 6750 3350
Wire Wire Line
	6750 3350 8650 3350
Connection ~ 6750 3350
Wire Wire Line
	5850 3450 6750 3450
Wire Wire Line
	6750 3450 8650 3450
Connection ~ 6750 3450
Wire Wire Line
	5850 3550 6750 3550
Wire Wire Line
	6750 3550 8650 3550
Connection ~ 6750 3550
Wire Wire Line
	5850 3650 6750 3650
Wire Wire Line
	6750 3650 8650 3650
Connection ~ 6750 3650
Wire Wire Line
	5900 3750 6750 3750
Wire Wire Line
	6750 3750 8650 3750
Wire Wire Line
	6000 3850 6750 3850
Wire Wire Line
	6750 3850 8650 3850
Wire Wire Line
	6100 3950 6750 3950
Wire Wire Line
	6750 3950 8650 3950
Wire Wire Line
	6200 4050 6750 4050
Wire Wire Line
	6750 4050 8650 4050
Wire Wire Line
	6300 4150 6750 4150
Wire Wire Line
	6750 4150 8650 4150
Wire Wire Line
	3250 2950 3850 2950
Wire Wire Line
	3850 2950 4650 2950
Wire Wire Line
	3250 3050 3950 3050
Wire Wire Line
	3950 3050 4650 3050
Wire Wire Line
	3250 3150 4050 3150
Wire Wire Line
	4050 3150 4650 3150
Wire Wire Line
	3250 3250 4150 3250
Wire Wire Line
	4150 3250 4650 3250
Wire Wire Line
	3250 3350 4250 3350
Wire Wire Line
	4250 3350 4650 3350
Wire Wire Line
	3250 3450 4350 3450
Wire Wire Line
	4350 3450 4650 3450
Wire Wire Line
	3250 3550 4450 3550
Wire Wire Line
	4450 3550 4650 3550
Wire Wire Line
	3250 3650 4550 3650
Wire Wire Line
	4550 3650 4650 3650
Wire Wire Line
	7450 2500 7450 2000
Wire Wire Line
	7550 2500 7550 1900
Wire Wire Line
	7650 2500 7650 1800
Wire Wire Line
	7750 2500 7750 1700
Wire Wire Line
	7850 2500 7850 1600
Wire Wire Line
	7950 2500 7950 1500
Wire Wire Line
	8050 2500 8050 1400
Wire Wire Line
	8150 2500 8150 1300
Wire Wire Line
	9350 2000 9350 2500
Wire Wire Line
	9450 1900 9450 2500
Wire Wire Line
	9550 1800 9550 2500
Wire Wire Line
	9650 1700 9650 2500
Wire Wire Line
	9750 1600 9750 2500
Wire Wire Line
	9850 1500 9850 2500
Wire Wire Line
	9950 1400 9950 2500
Wire Wire Line
	10050 1300 10050 2500
Wire Wire Line
	3850 2000 7450 2000
Wire Wire Line
	7450 2000 9350 2000
Wire Wire Line
	3850 2000 3850 2950
Connection ~ 3850 2950
Connection ~ 7450 2000
Wire Wire Line
	3950 1900 7550 1900
Wire Wire Line
	7550 1900 9450 1900
Wire Wire Line
	3950 1900 3950 3050
Connection ~ 3950 3050
Connection ~ 7550 1900
Wire Wire Line
	4050 1800 7650 1800
Wire Wire Line
	7650 1800 9550 1800
Wire Wire Line
	4050 1800 4050 3150
Connection ~ 4050 3150
Connection ~ 7650 1800
Wire Wire Line
	4150 1700 7750 1700
Wire Wire Line
	7750 1700 9650 1700
Wire Wire Line
	4150 1700 4150 3250
Connection ~ 4150 3250
Connection ~ 7750 1700
Wire Wire Line
	4250 1600 7850 1600
Wire Wire Line
	7850 1600 9750 1600
Wire Wire Line
	4250 1600 4250 3350
Connection ~ 4250 3350
Connection ~ 7850 1600
Wire Wire Line
	4350 1500 7950 1500
Wire Wire Line
	7950 1500 9850 1500
Wire Wire Line
	4350 1500 4350 3450
Connection ~ 4350 3450
Connection ~ 7950 1500
Wire Wire Line
	4450 1400 8050 1400
Wire Wire Line
	8050 1400 9950 1400
Wire Wire Line
	4450 1400 4450 3550
Connection ~ 4450 3550
Connection ~ 8050 1400
Wire Wire Line
	4550 1300 8150 1300
Wire Wire Line
	8150 1300 10050 1300
Wire Wire Line
	4550 1300 4550 3650
Connection ~ 4550 3650
Connection ~ 8150 1300
Wire Wire Line
	5500 2500 5500 1150
Wire Wire Line
	1700 1150 2550 1150
Wire Wire Line
	2550 1150 5500 1150
Wire Wire Line
	5500 1150 7050 1150
Wire Wire Line
	7050 1150 8950 1150
Wire Wire Line
	8950 1150 10300 1150
Wire Wire Line
	2550 1150 2550 2400
Wire Wire Line
	3250 4300 5250 4300
Wire Wire Line
	5250 4300 5500 4300
Wire Wire Line
	5500 4100 5500 4300
Wire Wire Line
	5500 4300 5500 5050
Wire Wire Line
	5500 5050 5500 6000
Wire Wire Line
	5500 6000 5500 6150
Wire Wire Line
	5250 4100 5250 4300
Connection ~ 5250 4300
Wire Wire Line
	5900 3750 5900 4500
Wire Wire Line
	5900 4500 3250 4500
Connection ~ 6750 3750
Wire Wire Line
	6000 3850 6000 4600
Wire Wire Line
	6000 4600 3250 4600
Connection ~ 6750 3850
Wire Wire Line
	6100 3950 6100 4700
Wire Wire Line
	6100 4700 3250 4700
Connection ~ 6750 3950
Wire Wire Line
	6200 4050 6200 4800
Wire Wire Line
	6200 4800 3250 4800
Connection ~ 6750 4050
Wire Wire Line
	6300 4150 6300 4900
Wire Wire Line
	6300 4900 3250 4900
Connection ~ 6750 4150
Wire Wire Line
	3250 4150 5000 4150
Wire Wire Line
	5000 4150 5000 4100
Wire Wire Line
	3250 5700 10050 5700
Wire Wire Line
	10050 5700 10050 4700
Wire Wire Line
	3250 5550 8150 5550
Wire Wire Line
	8150 5550 8150 4700
Wire Wire Line
	3250 5400 7950 5400
Wire Wire Line
	7950 5400 7950 4700
Wire Wire Line
	7050 4700 7050 5050
Wire Wire Line
	5500 5050 7050 5050
Wire Wire Line
	7050 5050 7250 5050
Wire Wire Line
	7250 5050 8950 5050
Wire Wire Line
	8950 5050 9150 5050
Wire Wire Line
	7250 5050 7250 4700
Wire Wire Line
	8950 5050 8950 4700
Connection ~ 7250 5050
Connection ~ 7050 5050
Connection ~ 5500 4300
Wire Wire Line
	9150 5050 9150 4700
Connection ~ 8950 5050
Wire Wire Line
	9850 4700 9850 5050
Wire Wire Line
	9850 5050 10300 5050
Wire Wire Line
	10300 5050 10300 1150
Connection ~ 5500 5050
Wire Wire Line
	1400 6000 1700 6000
Wire Wire Line
	1700 6000 2550 6000
Wire Wire Line
	2550 6000 5500 6000
Connection ~ 5500 6000
Wire Wire Line
	7250 2500 7250 2450
Connection ~ 5500 1150
Wire Wire Line
	7050 1150 7050 2100
Wire Wire Line
	7050 2100 7050 2500
Connection ~ 7050 1150
Wire Wire Line
	7250 2150 7250 2100
Wire Wire Line
	7250 2100 7050 2100
Connection ~ 7050 2100
Wire Wire Line
	8950 2500 8950 1150
Connection ~ 8950 1150
Wire Wire Line
	1700 1450 1700 1150
Connection ~ 2550 1150
Wire Wire Line
	1700 1950 1700 1850
Wire Wire Line
	1700 1850 1700 1750
Wire Wire Line
	1700 1850 2300 1850
Wire Wire Line
	2300 1850 2300 2400
Connection ~ 1700 1850
Wire Wire Line
	1700 2350 1700 2250
Wire Wire Line
	1700 5550 1700 5600
Wire Wire Line
	1700 5600 1700 5700
Wire Wire Line
	1850 5550 1700 5550
Connection ~ 1700 5600
Wire Wire Line
	1400 5400 1400 5600
Wire Wire Line
	1400 5600 1400 5700
Wire Wire Line
	1400 5400 1850 5400
Connection ~ 1400 5600
Connection ~ 2550 6000
Connection ~ 1700 6000
$EndSCHEMATC
